                                                                       
                                                                       
               AAA                                UUUUUUUU     UUUUUUUU
              A:::A                               U::::::U     U::::::U
             A:::::A                              U::::::U     U::::::U
            A:::::::A                             UU:::::U     U:::::UU
           A:::::::::A              ooooooooooo    U:::::U     U:::::U 
          A:::::A:::::A           oo:::::::::::oo  U:::::D     D:::::U 
         A:::::A A:::::A         o:::::::::::::::o U:::::D     D:::::U 
        A:::::A   A:::::A        o:::::ooooo:::::o U:::::D     D:::::U 
       A:::::A     A:::::A       o::::o     o::::o U:::::D     D:::::U 
      A:::::AAAAAAAAA:::::A      o::::o     o::::o U:::::D     D:::::U 
     A:::::::::::::::::::::A     o::::o     o::::o U:::::D     D:::::U 
    A:::::AAAAAAAAAAAAA:::::A    o::::o     o::::o U::::::U   U::::::U 
   A:::::A             A:::::A   o:::::ooooo:::::o U:::::::UUU:::::::U 
  A:::::A               A:::::A  o:::::::::::::::o  UU:::::::::::::UU  
 A:::::A                 A:::::A  oo:::::::::::oo     UU:::::::::UU    
AAAAAAA                   AAAAAAA   ooooooooooo         UUUUUUUUU      
                                                                       
                                                                       
                                                                       