[
  {
    "resId": "GROUP-CC-BY",
    "name": "Creative Commons Attribution (CC BY)",
    "sortValue": 10,
    "labels": {
      "fre": "Creative Commons: Attribution (CC BY)",
      "eng": "Creative Commons: Attribution (CC BY)"
    }
  },
  {
    "resId": "GROUP-CC-BY-SA",
    "name": "Creative Commons Attribution-ShareALike (CC BY-SA)",
    "sortValue": 20,
    "labels": {
      "fre": "Creative Commons: Attribution-Partage à l'identique (CC BY-SA)",
      "eng": "Creative Commons: Attribution-Share ALike (CC BY-SA)"
    }
  },
  {
    "resId": "GROUP-CC-BY-ND",
    "name": "Creative Commons Attribution-NoDerivatives (CC BY-ND)",
    "sortValue": 30,
    "labels": {
      "fre": "Creative Commons: Attribution-Pas d'oeuvre dérivée (CC BY-ND)",
      "eng": "Creative Commons: Attribution-No Derivatives (CC BY-ND)"
    }
  },
  {
    "resId": "GROUP-CC-BY-NC",
    "name": "Creative Commons Attribution-NonCommercial (CC BY-NC)",
    "sortValue": 40,
    "labels": {
      "fre": "Creative Commons: Attribution-Pas d'utilisation commerciale (CC BY-NC)",
      "eng": "Creative Commons: Attribution-Non Commercial (CC BY-NC)"
    }
  },
  {
    "resId": "GROUP-CC-BY-NC-SA",
    "name": "Creative Commons NonCommercial-ShareAlike (CC BY-NC-SA)",
    "sortValue": 50,
    "labels": {
      "fre": "Creative Commons: Attribution-Pas d'utilisation commerciale-Partage à l'identique (CC BY-NC-SA)",
      "eng": "Creative Commons: Non Commercial-Share Alike (CC BY-NC-SA)"
    }
  },
  {
    "resId": "GROUP-CC-BY-NC-ND",
    "name": "Creative Commons Attribution-NonCommercial-NoDerivatives (CC BY-NC-ND)",
    "sortValue": 60,
    "labels": {
      "fre": "Creative Commons: Attribution-Pas d'utilisation commerciale-Pas d'oeuvre dérivée (CC BY-NC-ND)",
      "eng": "Creative Commons: Attribution-Non Commercial-No Derivatives (CC BY-NC-ND)"
    }
  },
  {
    "resId": "GROUP-CC0",
    "name": "Creative Commons Public Domain (CC0)",
    "sortValue": 70,
    "labels": {
      "fre": "Creative Commons: Domaine Public (CC0)",
      "eng": "Creative Commons: Public Domain (CC0)"
    }
  },
  {
    "resId": "GROUP-OA-NATIONAL",
    "name": "Backfiles purchase (National Licenses Project)",
    "sortValue": 80,
    "labels": {
      "fre": "Achat d'archives (Projet National Licenses)",
      "eng": "Backfiles purchase (National Licenses Project)"
    }
  },
  {
    "resId": "GROUP-OA-OTHER",
    "name": "Other Open Access license",
    "sortValue": 90,
    "labels": {
      "fre": "Autre licence en accès libre (Open Access)",
      "eng": "Other Open Access license"
    }
  }
]


