[
  {
    "code": "A1",
    "descriptions": {
      "fre": "Article paru dans une revue académique ayant une politique éditoriale et/ou un comité de lecture",
      "eng": "Article published in an academic journal with an editorial policy and/or a reading committee"
    }
  },
  {
    "code": "A2",
    "descriptions": {
      "fre": "Article paru dans une revue visant un public de professionnel-les",
      "eng": "Article published in a journal aimed at a professional audience"
    }
  },
  {
    "code": "A3",
    "descriptions": {
      "fre": "Autre type d'article, par exemple paru dans des magazines, de la presse...",
      "eng": "Other type of article, for example published in magazines, newspapers..."
    }
  },
  {
    "code": "C1",
    "descriptions": {
      "fre": "Ensemble des présentations faites dans une conférence",
      "eng": "All presentations made at a conference"
    }
  },
  {
    "code": "C2",
    "descriptions": {
      "fre": "Présentation ou intervention non publiées dans des actes",
      "eng": "Contribution or intervention not published in proceedings"
    }
  },
  {
    "code": "C3",
    "descriptions": {
      "fre": "Poster",
      "eng": "Poster"
    }
  },
  {
    "code": "C4",
    "descriptions": {
      "fre": "Présentation publiée dans des actes",
      "eng": "Contribution published in proceedings. Conference paper"
    }
  },
  {
    "code": "D1",
    "descriptions": {
      "fre": "Thèse de doctorat",
      "eng": "Doctoral thesis"
    }
  },
  {
    "code": "D2",
    "descriptions": {
      "fre": "Master d'études avancées",
      "eng": "Master of advanced studies"
    }
  },
  {
    "code": "D3",
    "descriptions": {
      "fre": "Master",
      "eng": "Master"
    }
  },
  {
    "code": "D4",
    "descriptions": {
      "fre": "Thèse de privat-docent",
      "eng": "Privat-docent thesis"
    }
  },
  {
    "code": "D5",
    "descriptions": {
      "fre": "Thèse de doctorat professionnel de FC (DAPS)",
      "eng": "Doctoral thesis of advanced professional studies (DAPS)"
    }
  },
  {
    "code": "J1",
    "descriptions": {
      "fre": "Seuls les numéros dont l'éditeur/trice scientifique est un-e collaborateur/trice de l'UNIGE sont acceptés",
      "eng": "Only issues whose scientific editor is a collaborator of the UNIGE are accepted"
    }
  },
  {
    "code": "L1",
    "descriptions": {
      "fre": "Monographies ou livre édités",
      "eng": "Monography or edited book"
    }
  },
  {
    "code": "L2",
    "descriptions": {
      "fre": "Ouvrage collectif ou mélanges",
      "eng": "Collective work or melange"
    }
  },
  {
    "code": "L3",
    "descriptions": {
      "fre": "Toute partie d'un livre (chapitre, préface, introduction...)",
      "eng": "Any part of a book (chapter, preface, introduction...)"
    }
  },
  {
    "code": "L5",
    "descriptions": {
      "fre": "Contribution à un dictionnaire / une encyclopédie",
      "eng": "Contribution to a dictionary / encylopedia"
    }
  },
  {
    "code": "R1",
    "descriptions": {
      "fre": "Rapport de recherche",
      "eng": "Research report"
    }
  },
  {
    "code": "R2",
    "descriptions": {
      "fre": "Rapport technique",
      "eng": "Technical report"
    }
  },
  {
    "code": "R3",
    "descriptions": {
      "fre": "Working paper",
      "eng": "Working paper"
    }
  },
  {
    "code": "R4",
    "descriptions": {
      "fre": "Publication n'ayant pas été revue par des pairs. Souvent forme préliminaire d'un futur article scientifique",
      "eng": "Non peer-reviewed publication. Often the preliminary form of a future scientific article"
    }
  }
]
