[
  {
    "Code": "A0000",
    "EN": "Humanities & Social Sciences"
  },
  {
    "Code": "Aa000",
    "EN": "Humanities"
  },
  {
    "Code": "Aa100",
    "EN": "Ancient Cultures"
  },
  {
    "Code": "Aa101",
    "EN": "Prehistory"
  },
  {
    "Code": "Aa102",
    "EN": "Classical Philology"
  },
  {
    "Code": "Aa103",
    "EN": "Ancient History"
  },
  {
    "Code": "Aa104",
    "EN": "Classical Archaeology"
  },
  {
    "Code": "Aa105",
    "EN": "Egyptology & Ancient Near Eastern Studies"
  },
  {
    "Code": "Aa200",
    "EN": "History"
  },
  {
    "Code": "Aa201",
    "EN": "Medieval History"
  },
  {
    "Code": "Aa202",
    "EN": "Early Modern History"
  },
  {
    "Code": "Aa203",
    "EN": "Modern & Current History"
  },
  {
    "Code": "Aa204",
    "EN": "History of Science"
  },
  {
    "Code": "Aa300",
    "EN": "Fine Arts, Music, Theatre & Media Studies"
  },
  {
    "Code": "Aa301",
    "EN": "Art History"
  },
  {
    "Code": "Aa302",
    "EN": "Musicology"
  },
  {
    "Code": "Aa303",
    "EN": "Theatre & Media Studies"
  },
  {
    "Code": "Aa400",
    "EN": "Linguistics"
  },
  {
    "Code": "Aa401",
    "EN": "General & Applied Linguistics"
  },
  {
    "Code": "Aa402",
    "EN": "Individual Linguistics"
  },
  {
    "Code": "Aa403",
    "EN": "Typology, Non-European Languages, Historical Linguistics"
  },
  {
    "Code": "Aa500",
    "EN": "Literary Studies"
  },
  {
    "Code": "Aa501",
    "EN": "Medieval German Literature"
  },
  {
    "Code": "Aa502",
    "EN": "Modern German Literature"
  },
  {
    "Code": "Aa503",
    "EN": "European & American Literature"
  },
  {
    "Code": "Aa504",
    "EN": "General & Comparative Literature & Cultural Studies"
  },
  {
    "Code": "Aa600",
    "EN": "Non-European Languages & Cultures, Social & Cultural Anthropology, Jewish Studies & Religious Studies"
  },
  {
    "Code": "Aa601",
    "EN": "Social & Cultural Anthropology & Ethnology/Folklore"
  },
  {
    "Code": "Aa602",
    "EN": "Asian Studies"
  },
  {
    "Code": "Aa603",
    "EN": "African, American & Oceania Studies"
  },
  {
    "Code": "Aa604",
    "EN": "Islamic Studies, Arabian Studies, Semitic Studies"
  },
  {
    "Code": "Aa605",
    "EN": "Religious Studies & Jewish Studies"
  },
  {
    "Code": "Aa700",
    "EN": "Theology"
  },
  {
    "Code": "Aa701",
    "EN": "Protestant Theology"
  },
  {
    "Code": "Aa702",
    "EN": "Roman Catholic Theology"
  },
  {
    "Code": "Aa800",
    "EN": "Philosophy"
  },
  {
    "Code": "Aa801",
    "EN": "History of Philosophy"
  },
  {
    "Code": "Aa802",
    "EN": "Theoretical Philosophy"
  },
  {
    "Code": "Aa803",
    "EN": "Practical Philosophy"
  },
  {
    "Code": "Ab000",
    "EN": "Social & Behavioural Sciences"
  },
  {
    "Code": "Ab100",
    "EN": "Education Sciences"
  },
  {
    "Code": "Ab101",
    "EN": "General Education & History of Education"
  },
  {
    "Code": "Ab102",
    "EN": "Research on Teaching, Learning & Training"
  },
  {
    "Code": "Ab103",
    "EN": "Research on Socialization & Educational Institutions & Professions"
  },
  {
    "Code": "Ab200",
    "EN": "Psychology"
  },
  {
    "Code": "Ab201",
    "EN": "General, Biological & Mathematical Psychology"
  },
  {
    "Code": "Ab202",
    "EN": "Developmental & Educational Psychology"
  },
  {
    "Code": "Ab203",
    "EN": "Social Psychology, Industrial & Organisational Psychology"
  },
  {
    "Code": "Ab204",
    "EN": "Differential Psychology, Clinical Psychology, Medical Psychology, Methodology"
  },
  {
    "Code": "Ab300",
    "EN": "Social Sciences"
  },
  {
    "Code": "Ab301",
    "EN": "Sociological Theory"
  },
  {
    "Code": "Ab302",
    "EN": "Empirical Social Research"
  },
  {
    "Code": "Ab303",
    "EN": "Communication Science"
  },
  {
    "Code": "Ab304",
    "EN": "Political Science"
  },
  {
    "Code": "Ab400",
    "EN": "Economics"
  },
  {
    "Code": "Ab401",
    "EN": "Economic Theory"
  },
  {
    "Code": "Ab402",
    "EN": "Economic & Social Policy"
  },
  {
    "Code": "Ab403",
    "EN": "Public Finance"
  },
  {
    "Code": "Ab404",
    "EN": "Business Administration"
  },
  {
    "Code": "Ab405",
    "EN": "Statistics & Econometrics"
  },
  {
    "Code": "Ab406",
    "EN": "Economic & Social History"
  },
  {
    "Code": "Ab500",
    "EN": "Jurisprudence"
  },
  {
    "Code": "Ab501",
    "EN": "Legal & Political Philosophy, Legal History, Legal Theory"
  },
  {
    "Code": "Ab502",
    "EN": "Private Law"
  },
  {
    "Code": "Ab503",
    "EN": "Public Law"
  },
  {
    "Code": "Ab504",
    "EN": "Criminal Law & Law of Criminal Procedure"
  },
  {
    "Code": "Ab505",
    "EN": "Criminology"
  },
  {
    "Code": "B0000",
    "EN": "Life Sciences"
  },
  {
    "Code": "Ba000",
    "EN": "Biology"
  },
  {
    "Code": "Ba100",
    "EN": "Basic Biological & Medical Research"
  },
  {
    "Code": "Ba101",
    "EN": "Biochemistry"
  },
  {
    "Code": "Ba102",
    "EN": "Biophysics"
  },
  {
    "Code": "Ba103",
    "EN": "Cell Biology"
  },
  {
    "Code": "Ba104",
    "EN": "Structural Biology"
  },
  {
    "Code": "Ba105",
    "EN": "General Genetics"
  },
  {
    "Code": "Ba106",
    "EN": "Developmental Biology"
  },
  {
    "Code": "Ba107",
    "EN": "Bioinformatics & Theoretical Biology"
  },
  {
    "Code": "Ba108",
    "EN": "Anatomy"
  },
  {
    "Code": "Ba200",
    "EN": "Plant Sciences"
  },
  {
    "Code": "Ba201",
    "EN": "Plant Systematics & Evolution"
  },
  {
    "Code": "Ba202",
    "EN": "Plant Ecology & Ecosystem Analysis"
  },
  {
    "Code": "Ba203",
    "EN": "Inter-organismic Interactions of Plants"
  },
  {
    "Code": "Ba204",
    "EN": "Plant Physiology"
  },
  {
    "Code": "Ba205",
    "EN": "Plant Biochemistry & Biophysics"
  },
  {
    "Code": "Ba206",
    "EN": "Plant Cell & Developmental Biology"
  },
  {
    "Code": "Ba207",
    "EN": "Plant Genetics"
  },
  {
    "Code": "Ba300",
    "EN": "Zoology"
  },
  {
    "Code": "Ba301",
    "EN": "Systematics & Morphology"
  },
  {
    "Code": "Ba302",
    "EN": "Evolution, Anthropology"
  },
  {
    "Code": "Ba303",
    "EN": "Animal Ecology, Biodiversity & Ecosystem Research"
  },
  {
    "Code": "Ba304",
    "EN": "Sensory & Behavioural Biology"
  },
  {
    "Code": "Ba305",
    "EN": "Biochemistry & Animal Physiology"
  },
  {
    "Code": "Ba306",
    "EN": "Animal Genetics, Cell & Developmental Biology"
  },
  {
    "Code": "Bb000",
    "EN": "Medicine"
  },
  {
    "Code": "Bb100",
    "EN": "Microbiology, Virology & Immunology"
  },
  {
    "Code": "Bb101",
    "EN": "Metabolism, Biochemistry & Genetics of Microorganisms"
  },
  {
    "Code": "Bb102",
    "EN": "Microbial Ecology & Applied Microbiology"
  },
  {
    "Code": "Bb103",
    "EN": "Medical Microbiology, Molecular Infection Biology"
  },
  {
    "Code": "Bb104",
    "EN": "Virology"
  },
  {
    "Code": "Bb105",
    "EN": "Immunology"
  },
  {
    "Code": "Bb200",
    "EN": "Medicine"
  },
  {
    "Code": "Bb201",
    "EN": "Epidemiology, Medical Biometry, Medical Informatics"
  },
  {
    "Code": "Bb202",
    "EN": "Public Health, Health Services Research, Social Medicine"
  },
  {
    "Code": "Bb203",
    "EN": "Human Genetics"
  },
  {
    "Code": "Bb204",
    "EN": "Physiology"
  },
  {
    "Code": "Bb205",
    "EN": "Nutritional Sciences"
  },
  {
    "Code": "Bb206",
    "EN": "Pathology & Forensic Medicine"
  },
  {
    "Code": "Bb207",
    "EN": "Clinical Chemistry & Pathobiochemistry"
  },
  {
    "Code": "Bb208",
    "EN": "Pharmacy"
  },
  {
    "Code": "Bb209",
    "EN": "Pharmacology"
  },
  {
    "Code": "Bb210",
    "EN": "Toxicology & Occupational Medicine"
  },
  {
    "Code": "Bb211",
    "EN": "Anaesthesiology"
  },
  {
    "Code": "Bb212",
    "EN": "Cardiology, Angiology"
  },
  {
    "Code": "Bb213",
    "EN": "Pneumology, Clinical Infectiology Intensive Care Medicine"
  },
  {
    "Code": "Bb214",
    "EN": "Hematology, Oncology, Transfusion Medicine"
  },
  {
    "Code": "Bb215",
    "EN": "Gastroenterology, Metabolism"
  },
  {
    "Code": "Bb216",
    "EN": "Nephrology"
  },
  {
    "Code": "Bb217",
    "EN": "Endocrinology, Diabetology"
  },
  {
    "Code": "Bb218",
    "EN": "Rheumatology, Clinical Immunology, Allergology"
  },
  {
    "Code": "Bb219",
    "EN": "Dermatology"
  },
  {
    "Code": "Bb220",
    "EN": "Pediatric & Adolescent Medicine"
  },
  {
    "Code": "Bb221",
    "EN": "Gynaecology & Obstetrics"
  },
  {
    "Code": "Bb222",
    "EN": "Reproductive Medicine/Biology"
  },
  {
    "Code": "Bb223",
    "EN": "Urology"
  },
  {
    "Code": "Bb224",
    "EN": "Gerontology & Geriatric Medicine"
  },
  {
    "Code": "Bb225",
    "EN": "Vascular & Visceral Surgery"
  },
  {
    "Code": "Bb226",
    "EN": "Cardiothoracic Surgery"
  },
  {
    "Code": "Bb227",
    "EN": "Traumatology & Orthopaedics"
  },
  {
    "Code": "Bb228",
    "EN": "Dentistry, Oral Surgery"
  },
  {
    "Code": "Bb229",
    "EN": "Otolaryngology"
  },
  {
    "Code": "Bb230",
    "EN": "Radiology & Nuclear Medicine"
  },
  {
    "Code": "Bb231",
    "EN": "Radiation Oncology & Radiobiology"
  },
  {
    "Code": "Bb232",
    "EN": "Biomedical Technology & Medical Physics"
  },
  {
    "Code": "Bb300",
    "EN": "Neurosciences"
  },
  {
    "Code": "Bb301",
    "EN": "Molecular Neuroscience & Neurogenetics"
  },
  {
    "Code": "Bb302",
    "EN": "Cellular Neuroscience"
  },
  {
    "Code": "Bb303",
    "EN": "Developmental Neurobiology"
  },
  {
    "Code": "Bb304",
    "EN": "Systemic Neuroscience, Computational Neuroscience, Behaviour"
  },
  {
    "Code": "Bb305",
    "EN": "Comparative Neurobiology"
  },
  {
    "Code": "Bb306",
    "EN": "Cognitive Neuroscience & Neuroimaging"
  },
  {
    "Code": "Bb307",
    "EN": "Molecular Neurology"
  },
  {
    "Code": "Bb308",
    "EN": "Clinical Neurosciences I - Neurology, Neurosurgery"
  },
  {
    "Code": "Bb309",
    "EN": "Biological Psychiatry"
  },
  {
    "Code": "Bb310",
    "EN": "Clinical Neurosciences II - Psychotherapy, Psychosomatic Medicine"
  },
  {
    "Code": "Bb311",
    "EN": "Clinical Neurosciences III - Ophthalmology"
  },
  {
    "Code": "Bc000",
    "EN": "Agriculture, Forestry, Horticulture & Veterinary Medicine"
  },
  {
    "Code": "Bc100",
    "EN": "Agriculture, Forestry, Horticulture & Veterinary Medicine"
  },
  {
    "Code": "Bc101",
    "EN": "Soil Sciences"
  },
  {
    "Code": "Bc102",
    "EN": "Plant Cultivation"
  },
  {
    "Code": "Bc103",
    "EN": "Plant Nutrition"
  },
  {
    "Code": "Bc104",
    "EN": "Ecology of Agricultural Landscapes"
  },
  {
    "Code": "Bc105",
    "EN": "Plant Breeding"
  },
  {
    "Code": "Bc106",
    "EN": "Phytomedicine"
  },
  {
    "Code": "Bc107",
    "EN": "Agricultural & Food Process Engineering"
  },
  {
    "Code": "Bc108",
    "EN": "Agricultural Economics & Sociology"
  },
  {
    "Code": "Bc109",
    "EN": "Inventory Control & Use of Forest Resources"
  },
  {
    "Code": "Bc110",
    "EN": "Basic Forest Research"
  },
  {
    "Code": "Bc111",
    "EN": "Animal Husbandry, Breeding & Hygiene"
  },
  {
    "Code": "Bc112",
    "EN": "Animal Nutrition & Nutrition Physiology"
  },
  {
    "Code": "Bc113",
    "EN": "Basic Veterinary Medical Science"
  },
  {
    "Code": "Bc114",
    "EN": "Basic Research on Pathogenesis, Diagnostics & Therapy & Clinical Veterinary Medicine"
  },
  {
    "Code": "C0000",
    "EN": "Natural Sciences"
  },
  {
    "Code": "Ca000",
    "EN": "Chemistry"
  },
  {
    "Code": "Ca100",
    "EN": "Molecular Chemistry"
  },
  {
    "Code": "Ca101",
    "EN": "Inorganic Molecular Chemistry"
  },
  {
    "Code": "Ca102",
    "EN": "Organic Molecular Chemistry"
  },
  {
    "Code": "Ca200",
    "EN": "Chemical Solid State & Surface Research"
  },
  {
    "Code": "Ca201",
    "EN": "Solid State & Surface Chemistry, Material Synthesis"
  },
  {
    "Code": "Ca202",
    "EN": "Physical Chemistry of Solids & Surfaces, Material Characterisation"
  },
  {
    "Code": "Ca203",
    "EN": "Theory & Modelling"
  },
  {
    "Code": "Ca300",
    "EN": "Physical & Theoretical Chemistry"
  },
  {
    "Code": "Ca301",
    "EN": "Physical Chemistry of Molecules, Interfaces & Liquids - Spectroscopy, Kinetics"
  },
  {
    "Code": "Ca302",
    "EN": "General Theoretical Chemistry"
  },
  {
    "Code": "Ca400",
    "EN": "Analytical Chemistry, Method Development (Chemistry)"
  },
  {
    "Code": "Ca401",
    "EN": "Analytical Chemistry, Method Development (Chemistry)"
  },
  {
    "Code": "Ca500",
    "EN": "Biological Chemistry & Food Chemistry"
  },
  {
    "Code": "Ca501",
    "EN": "Biological & Biomimetic Chemistry"
  },
  {
    "Code": "Ca502",
    "EN": "Food Chemistry"
  },
  {
    "Code": "Ca600",
    "EN": "Polymer Research"
  },
  {
    "Code": "Ca601",
    "EN": "Preparatory & Physical Chemistry of Polymers"
  },
  {
    "Code": "Ca602",
    "EN": "Experimental & Theoretical Physics of Polymers"
  },
  {
    "Code": "Ca603",
    "EN": "Polymer Materials"
  },
  {
    "Code": "Cb000",
    "EN": "Physics"
  },
  {
    "Code": "Cb100",
    "EN": "Condensed Matter Physics"
  },
  {
    "Code": "Cb101",
    "EN": "Experimental Condensed Matter Physics"
  },
  {
    "Code": "Cb102",
    "EN": "Theoretical Condensed Matter Physics"
  },
  {
    "Code": "Cb200",
    "EN": "Optics, Quantum Optics & Physics of Atoms, Molecules & Plasmas"
  },
  {
    "Code": "Cb201",
    "EN": "Optics, Quantum Optics, Atoms, Molecules, Plasmas"
  },
  {
    "Code": "Cb300",
    "EN": "Particles, Nuclei & Fields"
  },
  {
    "Code": "Cb301",
    "EN": "Particles, Nuclei & Fields"
  },
  {
    "Code": "Cb400",
    "EN": "Statistical Physics, Soft Matter, Biological Physics, Nonlinear Dynamics"
  },
  {
    "Code": "Cb401",
    "EN": "Statistical Physics, Soft Matter, Biological Physics, Nonlinear Dynamics"
  },
  {
    "Code": "Cb500",
    "EN": "Astrophysics & Astronomy"
  },
  {
    "Code": "Cb501",
    "EN": "Astrophysics & Astronomy"
  },
  {
    "Code": "Cc000",
    "EN": "Mathematics"
  },
  {
    "Code": "Cc100",
    "EN": "Mathematics"
  },
  {
    "Code": "Cc101",
    "EN": "Mathematics"
  },
  {
    "Code": "Cd000",
    "EN": "Geosciences (including Geography)"
  },
  {
    "Code": "Cd100",
    "EN": "Atmospheric Science & Oceanography"
  },
  {
    "Code": "Cd101",
    "EN": "Atmospheric Science"
  },
  {
    "Code": "Cd102",
    "EN": "Oceanography"
  },
  {
    "Code": "Cd200",
    "EN": "Geology & Palaeontology"
  },
  {
    "Code": "Cd201",
    "EN": "Geology & Palaeontology"
  },
  {
    "Code": "Cd300",
    "EN": "Geophysics & Geodesy"
  },
  {
    "Code": "Cd301",
    "EN": "Geophysics"
  },
  {
    "Code": "Cd302",
    "EN": "Geodesy, Photogrammetry, Remote Sensing, Geoinformatics, Cartogaphy"
  },
  {
    "Code": "Cd400",
    "EN": "Geochemistry, Mineralogy & Crystallography"
  },
  {
    "Code": "Cd401",
    "EN": "Geochemistry, Mineralogy & Crystallography"
  },
  {
    "Code": "Cd500",
    "EN": "Geography"
  },
  {
    "Code": "Cd501",
    "EN": "Physical Geography"
  },
  {
    "Code": "Cd502",
    "EN": "Human Geography"
  },
  {
    "Code": "Cd600",
    "EN": "Water Research"
  },
  {
    "Code": "Cd601",
    "EN": "Hydrogeology, Hydrology, Limnology, Urban Water Management, Water Chemistry, Integrated Water Resources Management"
  },
  {
    "Code": "D0000",
    "EN": "Engineering Sciences"
  },
  {
    "Code": "Da000",
    "EN": "Mechanical & industrial Engineering"
  },
  {
    "Code": "Da100",
    "EN": "Production Technology"
  },
  {
    "Code": "Da101",
    "EN": "Metal-Cutting Manufacturing Engineering"
  },
  {
    "Code": "Da102",
    "EN": "Primary Shaping & Reshaping Technology"
  },
  {
    "Code": "Da103",
    "EN": "Micro-, Precision, Mounting, Joining, Separation Technology"
  },
  {
    "Code": "Da104",
    "EN": "Plastics Engineering"
  },
  {
    "Code": "Da105",
    "EN": "Production Automation, Factory Operation, Operations Manangement"
  },
  {
    "Code": "Da200",
    "EN": "Mechanics & Constructive Mechanical Engineering"
  },
  {
    "Code": "Da201",
    "EN": "Construction, Machine Elements"
  },
  {
    "Code": "Da202",
    "EN": "Mechanics"
  },
  {
    "Code": "Da203",
    "EN": "Lightweight Construction, Textile Technology"
  },
  {
    "Code": "Da204",
    "EN": "Acoustics"
  },
  {
    "Code": "Db000",
    "EN": "Thermal Engineering/Process Engineering"
  },
  {
    "Code": "Db100",
    "EN": "Process Engineering, Technical Chemistry"
  },
  {
    "Code": "Db101",
    "EN": "Chemical & Thermal Process Engineering"
  },
  {
    "Code": "Db102",
    "EN": "Technical Chemistry"
  },
  {
    "Code": "Db103",
    "EN": "Mechanical Process Engineering"
  },
  {
    "Code": "Db104",
    "EN": "Biological Process Engineering"
  },
  {
    "Code": "Db200",
    "EN": "Heat Energy Technology, Thermal Machines, Fluid Mechanics"
  },
  {
    "Code": "Db201",
    "EN": "Energy Process Engineering"
  },
  {
    "Code": "Db202",
    "EN": "Technical Thermodynamics"
  },
  {
    "Code": "Db203",
    "EN": "Fluid Mechanics"
  },
  {
    "Code": "Db204",
    "EN": "Hydraulic & Turbo Engines & Piston Engines"
  },
  {
    "Code": "Dc000",
    "EN": "Materials Science & Engineering"
  },
  {
    "Code": "Dc100",
    "EN": "Materials Engineering"
  },
  {
    "Code": "Dc101",
    "EN": "Metallurgical & Thermal Processes, Thermomechanical Treatment of Materials"
  },
  {
    "Code": "Dc102",
    "EN": "Sintered Metallic & Ceramic Materials"
  },
  {
    "Code": "Dc103",
    "EN": "Composite Materials"
  },
  {
    "Code": "Dc104",
    "EN": "Mechanical Behaviour of Construction Materials"
  },
  {
    "Code": "Dc105",
    "EN": "Coating & Surface Technology"
  },
  {
    "Code": "Dc200",
    "EN": "Materials Science"
  },
  {
    "Code": "Dc201",
    "EN": "Thermodynamics & Kinetics of Materials"
  },
  {
    "Code": "Dc202",
    "EN": "Synthesis & Properties of Functional Materials"
  },
  {
    "Code": "Dc203",
    "EN": "Microstructural Mechanical Properties of Materials"
  },
  {
    "Code": "Dc204",
    "EN": "Structuring & Functionalisation"
  },
  {
    "Code": "Dc205",
    "EN": "Biomaterials"
  },
  {
    "Code": "Dd000",
    "EN": "Computer Science, Electrical & System Engineering"
  },
  {
    "Code": "Dd100",
    "EN": "Systems Engineering"
  },
  {
    "Code": "Dd101",
    "EN": "Automation, Control Systems, Robotics, Mechatronics"
  },
  {
    "Code": "Dd102",
    "EN": "Measurement Systems"
  },
  {
    "Code": "Dd103",
    "EN": "Microsystems"
  },
  {
    "Code": "Dd104",
    "EN": "Traffic & Transport Systems, Logistics"
  },
  {
    "Code": "Dd105",
    "EN": "Human Factors, Ergonomics, Human-Machine Systems"
  },
  {
    "Code": "Dd200",
    "EN": "Electrical Engineering"
  },
  {
    "Code": "Dd201",
    "EN": "Electronic Semiconductors, Components, Circuits, Systems"
  },
  {
    "Code": "Dd202",
    "EN": "Communication, High-Frequency & Network Technology, Theoretical Electrical Engineering"
  },
  {
    "Code": "Dd203",
    "EN": "Electrical Energy Generation, Distribution, Application"
  },
  {
    "Code": "Dd300",
    "EN": "Computer Science"
  },
  {
    "Code": "Dd301",
    "EN": "Theoretical Computer Science"
  },
  {
    "Code": "Dd302",
    "EN": "Software Technology"
  },
  {
    "Code": "Dd303",
    "EN": "Operating, Communication & Information Systems"
  },
  {
    "Code": "Dd304",
    "EN": "Artificial Intelligence, Image & Language Processing"
  },
  {
    "Code": "Dd305",
    "EN": "Computer Architecture & Embedded Systems"
  },
  {
    "Code": "De000",
    "EN": "Construction Engineering & Architecture"
  },
  {
    "Code": "De100",
    "EN": "Construction Engineering & Architecture"
  },
  {
    "Code": "De101",
    "EN": "Architecture, Building & Construction History, Sustainable Building Technology, Building Design"
  },
  {
    "Code": "De102",
    "EN": "Urbanism, Spatial Planning, Transportation & Infrastructure Planning, Landscape Planning"
  },
  {
    "Code": "De103",
    "EN": "Construction Material Sciences, Chemistry, Building Physics"
  },
  {
    "Code": "De104",
    "EN": "Sructural Engineering, Building Informatics, Construction Operation"
  },
  {
    "Code": "De105",
    "EN": "Applied Mechanics, Statics & Dynamics"
  },
  {
    "Code": "De106",
    "EN": "Geotechnics, Hydraulic Engineering"
  }
]